# Province Triggered modifiers are here.
# These are added to provinces through the add_province_triggered_modifier effect
#
# Effects are fully scriptable here.


###########################################
# Just random test modifier
###########################################
test_modifier = {
	potential = {
		always = yes
	}

	trigger = {
		owner = {
			stability = 0
		}
	}

	local_build_cost = 0.05	
	
	#Province scope
	on_activation = {
	
	}
	
	on_deactivation = {
	
	}
	
}

non_catholic_rome = {
	potential = {
		normal_or_historical_nations = yes
	}
	
	#viewer = {
	#}
	
	trigger = {
		owner = {
			NOT = { religion = catholic }
			OR = {
				religion_group = christian
				religion_group = muslim
			}
		}
	}

	prestige = 0.5
	missionaries = 1
	
	#Province scope
	on_activation = {
	
	}
	
	on_deactivation = {
	
	}
	
}

religious_center = {
	potential = {
	}
	
	#viewer = {
	#}
	
	trigger = {
		if = {
			limit = {
				province_id = 118 # Roma
			}
			religion = catholic
		}
		else_if = {
			limit = {
				province_id = 385 # Mecca
			}
			religion_group = muslim
		}
		else_if = {
			limit = {
				province_id = 409 # Hillah
			}
			religion = shiite
		}
		else_if = {
			limit = {
				province_id = 677
			}
			religion = vajrayana
		}
		else_if = {
			limit = {
				province_id = 2075
			}
			religion = sikhism
		}
		else_if = {
			limit = {
				province_id = 2095
			}
			religion = hinduism
		}
		else_if = {
			limit = {
				province_id = 2099
			}
			religion = buddhism
		}
		else_if = {
			limit = {
				province_id = 2311
			}
			religion = shiite
		}
		else_if = {
			limit = {
				province_id = 2221
			}
			religion = shiite
		}
		else_if = {
			limit = {
				province_id = 4359
			}
			religion = shinto
		}
		else_if = {
			limit = {
				province_id = 4720
			}
			OR = {
				religion = protestant
				religion = reformed
			}
		}
		else_if = {
			limit = {
				province_id = 266
			}
			religion = hussite
		}
		else_if = {
			limit = {
				province_id = 2140 # Yanzhou
			}
			religion = confucianism
		}
		else_if = {
			limit = {
				province_id = 1 # Stockholm - or rather Uppsala
			}
			religion = norse_pagan_reformed
		}
	}

	local_missionary_strength = -0.05
	
	#Province scope
	on_activation = {
	
	}
	
	on_deactivation = {
	
	}
}

# Perpetual Diet
perpetual_diet = {
	potential = {
	}
	
	trigger = {
		owner = {
			is_part_of_hre = yes
		}
		controller = {
			OR = {
				is_part_of_hre = yes
				NOT = { war_with = emperor }
			}
		}
	}

	prestige = 0.5
	local_development_cost = -0.05
	is_imperial_modifier = yes

	on_activation = {
		emperor = {
			remove_country_modifier = diet_occupied
		}
	}
	
	on_deactivation = {
		emperor = {
			add_country_modifier = { name = diet_occupied duration = -1 }
		}
	}
}

#Coptic control of Alexandria

coptic_alexandria = {
	potential = {
		normal_or_historical_nations = yes
	}
	
	#viewer = {
	#}
	
	trigger = {
		owner = {
			religion = coptic
		}
	}
	
	prestige = 0.5
	missionaries = 1
	tolerance_own = 1
	
	#Province scope
	on_activation = {
	
	}
	
	on_deactivation = {
	
	}
	
}

#Therevada Control of sacred tooth

theravada_kotte = {
	potential = {
		normal_or_historical_nations = yes
	}
	
	#viewer = {
	#}
	
	trigger = {
		owner = {
			religion = buddhism
		}
	}
	
	prestige = 0.5
	missionaries = 1
	tolerance_own = 1
	
	#Province scope
	on_activation = {
	
	}
	
	on_deactivation = {
	
	}
	
}

#Vajrayana Control of Lhasa

vajrayana_lhasa = {
	potential = {
		normal_or_historical_nations = yes
	}
	
	#viewer = {
	#}
	
	trigger = {
		owner = {
			religion = vajrayana
		}
	}
	
	prestige = 0.5
	missionaries = 1
	tolerance_own = 1
	
	#Province scope
	on_activation = {
	
	}
	
	on_deactivation = {
	
	}
	
}

#Mahayana control of Louyang

mahayana_louyang = {
	potential = {
		normal_or_historical_nations = yes
	}
	
	#viewer = {
	#}
	
	trigger = {
		owner = {
			religion = mahayana
		}
	}
	
	prestige = 0.5
	missionaries = 1
	tolerance_own = 1
	
	#Province scope
	on_activation = {
	
	}
	
	on_deactivation = {
	
	}
	
}

#Buddhist control of Bodh Gaya

buddhist_bodh_gaya = {
	potential = {
		normal_or_historical_nations = yes
	}
	
	#viewer = {
	#}
	
	trigger = {
		owner = {
			OR = {
				religion = buddhism
				religion = vajrayana
				religion = mahayana
			}
		}
	}
	
	prestige = 0.5
	missionaries = 1
	global_heretic_missionary_strength = 0.02
	
	#Province scope
	on_activation = {
	
	}
	
	on_deactivation = {
	
	}
	
}

# Hindu control of Varanasi

hindu_varanasi = {
	potential = {
		normal_or_historical_nations = yes
	}
	
	#viewer = {
	#}
	
	trigger = {
		owner = {
			religion = hinduism
		}
	}
	
	prestige = 0.5
	missionaries = 1
	tolerance_own = 1
	
	#Province scope
	on_activation = {
	
	}
	
	on_deactivation = {
	
	}
	
}

# Inti control of Pachamac

inti_lima = {
	potential = {
		normal_or_historical_nations = yes
	}
	
	#viewer = {
	#}
	
	trigger = {
		owner = {
			religion = inti
		}
	}
	
	prestige = 0.5
	missionaries = 1
	tolerance_own = 1
	
	#Province scope
	on_activation = {
	
	}
	
	on_deactivation = {
	
	}
	
}

#Nahuatl control of cholulula

nahuatl_cholula = {
	potential = {
		normal_or_historical_nations = yes
	}
	
	#viewer = {
	#}
	
	trigger = {
		owner = {
			religion = nahuatl
		}
	}
	
	prestige = 0.5
	missionaries = 1
	tolerance_own = 1
	
	#Province scope
	on_activation = {
	
	}
	
	on_deactivation = {
	
	}
	
}

# Mayan control of Chichen Itza

mayan_chichen_itza = {
	potential = {
		normal_or_historical_nations = yes
	}
	
	#viewer = {
	#}
	
	trigger = {
		owner = {
			religion = mesoamerican_religion
			is_religion_reformed = yes
		}
	}
	
	prestige = 0.5
	missionaries = 1
	tolerance_own = 1
	
	#Province scope
	on_activation = {
	
	}
	
	on_deactivation = {
	
	}
	
}

# Sikh control of Amritsar

sikh_amritsar = {
	potential = {
		normal_or_historical_nations = yes
	}
	
	#viewer = {
	#}
	
	trigger = {
		owner = {
			religion = sikhism
		}
		religion = sikhism
	}
	
	prestige = 0.5
	missionaries = 1
	tolerance_own = 1
	
	#Province scope
	on_activation = {
	
	}
	
	on_deactivation = {
	
	}
	
}

# Christian control of Mecca

christian_mecca = {
	potential = {
		normal_or_historical_nations = yes
	}
	
	#viewer = {
	#}
	
	trigger = {
		owner = {
			religion_group = christian
		}
	}
	
	prestige = 0.5
	missionaries = 1
	tolerance_own = 1
	
	#Province scope
	on_activation = {
	
	}
	
	on_deactivation = {
	
	}
	
}

# Jerusalem held by any Abrahamic faith

jerusalem_held = {
	potential = {
		NOT = { has_dlc = "Leviathan" }
		normal_or_historical_nations = yes
	}
	
	#viewer = {
	#}
	
	trigger = {
		owner = {
			OR = {
				religion_group = christian
				religion_group = muslim
				religion = jewish
			}
		}
	}
	
	prestige = 0.5
	missionaries = 1
	global_heretic_missionary_strength = 0.02
	
	#Province scope
	on_activation = {
	
	}
	
	on_deactivation = {
	
	}
	
}

alandalus_returns = {
	potential = {
		
	}
	
	#viewer = {
	#
	#}
	
	trigger = {
		owner = {
			religion_group = muslim
		}
	}
	
	prestige = 0.5
	tolerance_heretic = 1
	
	on_activation = {}
	
	on_deactivation = {}
	
}

changbai_mountain = {
	potential = {
		normal_or_historical_nations = yes
	}
	trigger = {
		owner = {
			OR = {
				primary_culture = manchu
				primary_culture = manchu_new
				primary_culture = korean
				primary_culture = korean_new
			}
			OR = {
				religion = tengri_pagan_reformed
				religion = confucianism
			}
			owns_core_province = 2743
			owns_core_province = 4201
		}
	}
	
	tolerance_own = 1
	prestige = 0.5
}

mongol_kurultai = {
	potential = {
		normal_or_historical_nations = yes
		has_global_flag = mongol_kurultai_flag
	}
	trigger = {
		owner = {
			OR = {
				has_reform = steppe_horde
				has_reform = great_mongol_state_reform
				AND = {
					government = monarchy
					NOT = { is_emperor_of_china = yes }
				}
			}
			OR = {
				primary_culture = mongol
				primary_culture = chahar
				primary_culture = khalkha
				primary_culture = oirats
				primary_culture = altaic_new
			}
		}
	}
	
	horde_unity = 1
	legitimacy = 1
}

# Vatican Library
adm_vatican_library = {
	potential = {
		normal_or_historical_nations = yes
	}
	trigger = {
		owner = {
			tag = PAP
		}
	}
	adm_tech_cost_modifier = -0.05
	global_unrest = -2
}

dip_vatican_library = {
	potential = {
		normal_or_historical_nations = yes
	}
	trigger = {
		owner = {
			tag = PAP
		}
	}
	dip_tech_cost_modifier = -0.05
	diplomatic_reputation = 1
}

mil_vatican_library = {
	potential = {
		normal_or_historical_nations = yes
	}
	trigger = {
		owner = {
			tag = PAP
		}
	}
	
	mil_tech_cost_modifier = -0.05
	army_tradition_from_battle = 0.5
}

pap_sistine_chapel = {
	potential = {
		normal_or_historical_nations = yes
		NOT = { has_global_flag = sistine_chapel_decorated }
	}
	trigger = {
		owner = {
			tag = PAP
		}
	}
	
	devotion = 0.1
}

pap_sistinechapel_botticelli = {
	potential = {
		normal_or_historical_nations = yes
	}
	trigger = {
		owner = {
			tag = PAP
		}
	}
	devotion = 0.1
	global_unrest = -1
}

pap_sistinechapel_ghirlandaio = {
	potential = {
		normal_or_historical_nations = yes
	}
	trigger = {
		owner = {
			tag = PAP
		}
	}
	devotion = 0.1
	prestige = 0.5
}

pap_sistinechapel_perugino = {
	potential = {
		normal_or_historical_nations = yes
	}
	trigger = {
		owner = {
			tag = PAP
		}
	}
	devotion = 0.1
	improve_relation_modifier = 0.1
}

pap_sistinechapel_michelangelo = {
	potential = {
		normal_or_historical_nations = yes
	}
	trigger = {
		owner = {
			tag = PAP
		}
	}
	devotion = 0.1
	idea_cost = -0.05
}

pap_sistinechapel_decorated = {
	potential = {
		normal_or_historical_nations = yes
	}
	trigger = {
		owner = {
			tag = PAP
		}
	}
	devotion = 0.1
	global_missionary_strength = 0.01
}

krantor_crane = {
	potential = {
		normal_or_historical_nations = yes
	}
	trigger = {
		owner = {
			estate_loyalty = { 
				estate = estate_burghers 
				loyalty = 50 
			}
		}
		if = { 
			limit = { has_dlc = "Mandate of Heaven" }
			NOT = { devastation = 5 } 
		}
	}
	province_trade_power_value = 5 
	trade_efficiency = 0.1
	
}

#Province modifiers, which have become monuments

#Mountain of Riches - Potosí Silver Mines
cerro_rico_modifier = {
	potential = {
		NOT = { has_dlc = "Leviathan" }
	}
	trigger = {
		#always
	}
	trade_goods_size = 3.0
}

# Restored Great Mosque of Djenné for people without Leviathan
great_mosque_djenne_modifier = {
	potential = {
		NOT = { has_dlc = "Leviathan" }
	}
	trigger = {
		religion_group = muslim
		has_owner_religion = yes
	}
	missionaries = 1
	global_heathen_missionary_strength = 0.01
	monthly_piety = 0.003
}

promised_land_modifier = {
	potential = {}
	trigger = {
		owner = {
			religion = jewish
			owns_core_province = 379
			owns_core_province = 364
			owns_core_province = 1854
		}
		religion = jewish
	}
	land_morale = 0.1
	naval_morale = 0.1
	tolerance_own = 2
	church_loyalty_modifier = 0.1
}

kongo_cardinal_modifier = {
	potential = {
		owner = {
			mission_completed = kon_gain_cardinal
		}
	}
	trigger = {
		religion = catholic
		has_owner_religion = yes
		owner = {
			capital_scope = {
				continent = africa
			}
		}
	}
	local_tax_modifier = 0.25
	church_loyalty_modifier = 0.1
	tolerance_own = 1
	papal_influence = 1
}

ajuuran_place_of_istunka = {
	potential = {
		owner = {
			mission_completed = aju_invent_istunka
		}
	}
	trigger = {
		owner = {
			mission_completed = aju_invent_istunka
		}
	}
	local_development_cost = -0.05
	global_unrest = -1
}

city_of_401_deities = {
	potential = {}
	trigger = {
		religion = shamanism
		owner = { religion = shamanism }
	}
	missionaries = 1
	tolerance_own = 1
}

temple_of_confucius_modifier = {
	potential = {
		NOT = { has_dlc = "Leviathan" }
	}
	trigger = {
		religion = confucianism
		owner = { religion = confucianism }
	}
	yearly_harmony = 0.25
	religious_unity = 0.25
	prestige = 0.25
}

temple_of_uppsala_modifier = {
	potential = {}
	trigger = {
		religion = norse_pagan_reformed
		owner = { religion = norse_pagan_reformed }
	}
	missionaries = 1
	tolerance_own = 1
	global_missionary_strength = 0.02
}

sound_toll_protection_modifier = {
	potential = {
		owner = { has_country_flag = dan_completed_mission_dan_the_sound_toll }
	}
	trigger = {
		has_coast_defense_building_trigger = yes
		has_trade_building_trigger = yes
		custom_trigger_tooltip = {
			tooltip = dan_completed_mission_dan_the_sound_toll_tt
			owner = { has_country_flag = dan_completed_mission_dan_the_sound_toll }
		}
	}
	province_trade_power_value = 3
	hostile_fleet_attrition = 3
	allowed_num_of_buildings = 2
	mercantilism_cost = -0.05
}

imperial_prussian_capital = {
	potential = {
		owner = { has_country_flag = pru_imperial_capital }
	}
	trigger = {
		owner = {
			OR = {
				has_reform = prussian_monarchy
				has_reform = prussian_republic
				has_reform = prussian_theocratic_reform
			}
			NOT = { has_idea_group = administrative_ideas }
		}
	}
	governing_capacity_modifier = 0.25
}

holy_horde_capital = {
	potential = {
		owner = { has_country_flag = teu_crusader_has_holy_horde_gov }
	}
	trigger = {
		owner = {
			has_reform = holy_horde_reform
			full_idea_group = religious_ideas
		}
	}
	manpower_in_true_faith_provinces = 0.25
}

livonian_diet_capital = {
	potential = {
		owner = { has_country_flag = liv_completed_diet_mission }
	}
	trigger = {
		owner = {
			is_core = PREV
		}
		has_courthouse_building_trigger = yes
	}
	advisor_pool = 1
	local_tax_modifier = 0.1
	local_production_efficiency = 0.1
	local_manpower_modifier = 0.1
	local_development_cost = -0.05
}

livonian_headquarter = {
	potential = {
		owner = { has_country_flag = teu_liv_alliance_flag }
	}
	trigger = {
		owner = {
			OR = {
				tag = LIV
				was_tag = LIV
			}
			alliance_with = TEU
		}
	}
	diplomatic_upkeep = 1
	yearly_army_professionalism = 0.005
	local_manpower_modifier = 0.25
	local_development_cost = -0.05
}

teutonic_headquarter = {
	potential = {
		owner = { has_country_flag = teu_liv_alliance_flag }
	}
	trigger = {
		owner = {
			OR = {
				tag = TEU
				was_tag = TEU
			}
			alliance_with = LIV
		}
	}
	diplomatic_upkeep = 1
	yearly_army_professionalism = 0.01
	local_manpower_modifier = 0.25
	local_development_cost = -0.05
}

seat_of_the_rigan_archbishopric = {
	potential = {
		owner = { has_country_flag = rig_has_completed_authority_mission }
	}
	trigger = {
		is_capital = yes
		has_tax_building_trigger = yes
		owner = {
			government = theocracy
		}
		custom_trigger_tooltip = {
			tooltip = not_more_than_6_provinces_outside_europe
			owner = {
				NOT = {
					num_of_owned_provinces_with = {
						continent = europe
						value = 6
					}
				}
			}
		}
	}
	devotion = 1
	local_tax_modifier = 0.25
	local_production_efficiency = 0.25
	local_manpower_modifier = 0.25
	local_sailors_modifier = 0.25
	local_development_cost = -0.15
}

cathedral_of_riga = {
	potential = {
		owner = { has_country_flag = tall_riga_mission_flag }
	}
	trigger = {
		is_capital = yes
		has_tax_building_trigger = yes
		custom_trigger_tooltip = {
			tooltip = not_more_than_6_provinces_outside_europe
			owner = {
				NOT = {
					num_of_owned_provinces_with = {
						continent = europe
						value = 6
					}
				}
			}
		}
	}
	local_development_cost = -0.25
	tax_income = 60
	local_governing_cost = -0.25
	church_loyalty_modifier = 0.1
}

market_of_riga = {
	potential = {
		owner = { has_country_flag = tall_riga_mission_flag }
	}
	trigger = {
		is_capital = yes
		has_trade_building_trigger = yes
		custom_trigger_tooltip = {
			tooltip = not_more_than_6_provinces_outside_europe
			owner = {
				NOT = {
					num_of_owned_provinces_with = {
						continent = europe
						value = 6
					}
				}
			}
		}
	}
	trade_goods_size = 3
	province_trade_power_value = 5
	naval_forcelimit = 20
	local_sailors = 5000
	burghers_loyalty_modifier = 0.1
}

fortification_of_riga = {
	potential = {
		owner = { has_country_flag = tall_riga_mission_flag }
	}
	trigger = {
		is_capital = yes
		has_manpower_building_trigger = yes
		province_has_current_tech_fort_trigger = yes
		custom_trigger_tooltip = {
			tooltip = not_more_than_6_provinces_outside_europe
			owner = {
				NOT = {
					num_of_owned_provinces_with = {
						continent = europe
						value = 6
					}
				}
			}
		}
	}
	local_manpower = 6
	land_forcelimit = 20
	local_fort_maintenance_modifier = -0.9
	local_defensiveness = 0.5
	nobles_loyalty_modifier = 0.1
}

stora_kopparberget_modifier = { #Great Copper Mountain
	potential = {
		NOT = { has_dlc = "Leviathan" }
	}
	trigger = {
		always = yes
	}
	trade_goods_size = 5.0
}

heddal_stave_church_modifier_leviathan_catholic = {
	potential = {
		has_dlc = "Leviathan"
	}
	trigger = {
		has_owner_religion = yes
		religion = catholic
		has_tax_building_trigger = yes
	}
	local_tax_modifier = 0.75
	local_religious_conversion_resistance = 1
	papal_influence = 0.25
}

heddal_stave_church_modifier_non_leviathan_catholic = {
	potential = {
		NOT = { has_dlc = "Leviathan" }
	}
	trigger = {
		has_owner_religion = yes
		religion = catholic
		has_tax_building_trigger = yes
	}
	local_unrest = -1
	stability_cost_modifier = -0.05
	missionaries = 1
	missionary_maintenance_cost = -0.1

	local_tax_modifier = 0.75
	local_religious_conversion_resistance = 1
	papal_influence = 0.25
}

heddal_stave_church_modifier_leviathan_reformation = {
	potential = {
		has_dlc = "Leviathan"
	}
	trigger = {
		has_owner_religion = yes
		religion_group = christian
		NOT = { religion = catholic }
		has_tax_building_trigger = yes
	}
	church_loyalty_modifier = 0.1
	church_power_modifier = 0.1
	monthly_fervor_increase = 0.25
	local_tax_modifier = 0.25
}

heddal_stave_church_modifier_non_leviathan_reformation = {
	potential = {
		NOT = { has_dlc = "Leviathan" }
	}
	trigger = {
		has_owner_religion = yes
		religion_group = christian
		NOT = { religion = catholic }
		has_tax_building_trigger = yes
	}
	local_unrest = -1
	stability_cost_modifier = -0.05
	missionaries = 1
	missionary_maintenance_cost = -0.1

	church_loyalty_modifier = 0.1
	church_power_modifier = 0.1
	monthly_fervor_increase = 0.25
	local_tax_modifier = 0.25
}