

#Conquest of Constantinople Music Pack
dlc008 = {
	reason = {
		tooltip_desc = "dlc008_reason_correct_region"
		tooltip_reason = "dlc008_reason_correct_region_reason"
		weight = 20
		trigger = {
			capital_scope = {
				OR = {
					region = balkan_region
					region = anatolia_region
				}
			}
		}
	}
}


#Songs of the New World
dlc013 = {
	reason = {
		tooltip_desc = "dlc013_reason"
		tooltip_reason = "dlc036_reason_colonists_reason"
		weight = 15
		trigger = {
			OR = {
				tag = ENG
				tag = SCO
				tag = FRA
				tag = CAS
				tag = POR
			}
		}
	}
	reason = {
		tooltip_desc = "dlc013_reason"
		tooltip_reason = "dlc013_reason_natives_reason"
		weight = 25
		trigger = {
			capital_scope = {
				OR = {
					continent = north_america
					continent = south_america
				}
			}
		}
	}
}

#Songs of Yuletide
dlc014 = {
	reason = {
		tooltip_desc = "dlc014_reason_generic"
		tooltip_reason = "dlc014_reason_december"
		weight = 50
		trigger = {
			real_month_of_year = 11
			OR = {
				religion = catholic
				religion = protestant
				religion = anglican
				religion = reformed
			}
		}
	}
}

#Republican Music
dlc026 = {
	reason = {
		tooltip_desc = "dlc026_reason_republic"
		tooltip_reason = "dlc026_reason_republic_reason"
		weight = 25
		trigger = {
			government = republic
		}
	}
}

#Songs of War
dlc030 = {
	reason = {
		tooltip_desc = "dlc030_reason_generic"
		tooltip_reason = "dlc063_reason_europe_reason"
		weight = 5
		trigger = {
			capital_scope = {
				continent = europe
			}
		}
	}
}

#Guns, Drums and Steel
dlc031 = {
	reason = {
		tooltip_desc = "dlc031_reason_generic"
		tooltip_reason = "dlc063_reason_europe_reason"
		weight = 10
		trigger = {
			capital_scope = {
				continent = europe
				NOT = { region = anatolia_region }
			}
		}
	}
}

#Songs of the New World
dlc036 = {
	reason = {
		tooltip_desc = "dlc036_reason_colonists"
		tooltip_reason = "dlc036_reason_colonists_reason"
		weight = 15
		trigger = {
			OR = {
				tag = ENG
				tag = SCO
				tag = FRA
				tag = CAS
				tag = POR
				tag = NED
			}
		}
	}
}

#Guns, Drums and Steel II
dlc037 = {
	reason = {
		tooltip_desc = "dlc037_reason_generic"
		tooltip_reason = "dlc063_reason_europe_reason"
		weight = 10
		trigger = {
			capital_scope = {
				continent = europe
				NOT = { region = anatolia_region }
			}
		}
	}
}

#Kairi's Soundtrack
dlc044 = {
	reason = {
		tooltip_desc = "dlc044_reason_east_asia"
		tooltip_reason = "dlc044_reason_east_asia_reason"
		weight = 25
		trigger = {
			capital_scope = {
				OR = {
					region = japan_region
					superregion = china_superregion
					region = manchuria_region
					region = korea_region
				}
			}
		}
	}
}

#Sabaton Soundtrack
dlc052 = {
	reason = {
		tooltip_desc = "dlc052_reason_generic"
		tooltip_reason = "dlc052_reason_scandinavia_reason"
		weight = 25
		trigger = {
			culture_group = scandinavian
		}
	}
}

#Kairi's Soundtrack II
dlc059 = {
	reason = {
		tooltip_desc = "dlc059_reason_east_asia"
		tooltip_reason = "dlc059_reason_east_asia_reason"
		weight = 25
		trigger = {
			capital_scope = {
				OR = {
					region = japan_region
					superregion = china_superregion
					region = manchuria_region
					region = korea_region
					region = mongolia_region
				}
			}
		}
	}
}

#Songs of Regency
dlc063 = {
	reason = {
		tooltip_desc = "dlc063_reason_europe"
		tooltip_reason = "dlc063_reason_europe_reason"
		weight = 20
		trigger = {
			capital_scope = {
				continent = europe
				NOT = { region = anatolia_region }
			}
		}
	}
}

#Fredman's Epistles
dlc065 = {
	reason = {
		tooltip_desc = "dlc065_reason_sweden"
		tooltip_reason = "dlc065_reason_sweden_reason"
		weight = 65
		trigger = {
			primary_culture = swedish
		}
	}
}

#The Rus Awaken
dlc076 = {
	reason = { #Russia
		tooltip_desc = "dlc076_reason_russia"
		tooltip_reason = "dlc076_reason_russia_reason"
		weight = 50
		trigger = {
			OR = {
				primary_culture = uralic
				culture_group = east_slavic
			}
		}
	}
}

#Kairi III
dlc081 = {
	reason = {
		tooltip_desc = "dlc081_reason_middle_east"
		tooltip_reason = "dlc081_reason_middle_east_reason"
		weight = 25
		trigger = {
			OR = {
				culture_group = iranian
				culture_group = turko_semitic
			}
		}
	}
}

#dlc089 is in Rule Britannia

#Dharma Music Pack
dlc094 = {
	reason = {
		tooltip_desc = "dlc094_reason_india"
		tooltip_reason = "dlcXXX_reason_india_reason"
		weight = 50
		trigger = {
			capital_scope = {
				superregion = india_superregion
			}
		}
	}
}

#dlc099 is part of Golden Century

# Emperor music
dlc105 = {
	reason = {
		tooltip_desc = "dlc105_reason_europe"
		tooltip_reason = "dlc105_reason_europe_reason"
		weight = 25
		trigger = {
			capital_scope = {
				continent = europe
			}
		}
	}
}

#dlc108 is in Leviathan
#dlc109 is in Leviathan

#dlc111 is in Origins
#dlc112 is in Origins
#dlc113 is in Origins

#Guns, Drums and Steel vol 3
dlc114 = {
	reason = {
		tooltip_desc = "dlc114_reason_generic"
		tooltip_reason = "dlc110_reason_new_music_reason"
		weight = 10
		trigger = {
			capital_scope = {
				continent = europe
			}
		}
	}
}

#dlc117 is in Lions of the North
#dlc118 is in Lions of the North